p8105_hw6_fwt2107
…
regression_df <- homicide_df %>% 
  group_by(city_state) %>% 
  nest %>% 
  mutate(log_results = map(data, logistic_regression)) %>% 
  select(city_state, log_results) %>% 
  unnest %>%
  filter(term == "victim_racewhite") %>% 
  mutate(OR = exp(estimate),
         CI_lower_limit = exp(estimate - 1.96*std.error),
         CI_upper_limit = exp(estimate + 1.96*std.error)) %>% 
  select(city_state, estimate, OR, CI_lower_limit, CI_upper_limit)

regression_df

## # A tibble: 47 x 5
##    city_state      estimate    OR CI_lower_limit CI_upper_limit
##    <chr>              <dbl> <dbl>          <dbl>          <dbl>
##  1 Albuquerque, NM   0.299  1.35           0.821           2.22
##  2 Atlanta, GA       0.284  1.33           0.761           2.32
##  3 Baltimore, MD     0.820  2.27           1.61            3.20
##  4 Baton Rouge, LA   0.404  1.50           0.702           3.20
##  5 Birmingham, AL   -0.0385 0.962          0.569           1.63
##  6 Boston, MA        2.17   8.73           3.59           21.2 
##  7 Buffalo, NY       0.942  2.56           1.40            4.70
##  8 Charlotte, NC     0.584  1.79           1.03            3.12
##  9 Chicago, IL       0.576  1.78           1.36            2.32
## 10 Cincinnati, OH    1.14   3.14           1.82            5.43
## # ... with 37 more rows
…
